INDEX VERSION 1.130+C:\repoCursoJava\cursojava_2021_7a\.metadata\.plugins\org.eclipse.jdt.core
2270713507.index
1644613161.index
1297225286.index
4123756625.index
2092250086.index
3956418768.index
4167196667.index
3090738413.index
874798761.index
1330774489.index
3862868720.index
1378015560.index
3445611512.index
4159925062.index
1481432206.index
2922245217.index
402791964.index
991735649.index
2245724659.index
